Introduction to oec • oec
…
      user_guide.Rmd

The OEC is the world’s leading visualization engine for international trade data. Using the oec R package is all about efficiency, without this package you could obtain the same data from the API at the expense of using additional time and effort for the same results.

Package data

Country codes

If you don’t know a certain country code you can explore this data before using the functions.

library(oec)

country_codes
#> # A tibble: 263 x 2
#>    country_code country            
#>    <chr>        <chr>              
#>  1 afg          Afghanistan        
#>  2 alb          Albania            
#>  3 dza          Algeria            
#>  4 asm          American Samoa     
#>  5 and          Andorra            
#>  6 ago          Angola             
#>  7 aia          Anguilla           
#>  8 ata          Antarctica         
#>  9 atg          Antigua and Barbuda
#> 10 xxa          Areas              
#> # ... with 253 more rows

Product codes

The OEC provides data classified using either HS92, HS96, HS02 and HS07 (Harmonized System) or SITC rev. 2 (Standard Internationsl Trade Classification).

Each of these classifications consists in numeric codes and a detailed product name associated to each code.

hs92
#> # A tibble: 6,282 x 5
#>    product_name                       id     group_name    group_id color 
#>    <chr>                              <chr>  <chr>         <chr>    <chr> 
#>  1 Horses                             0101   Animal Produ… 01       #FFE9…
#>  2 Horses, live pure-bred breeding    010111 Animal Produ… 01       #FFE9…
#>  3 Horses, live except pure-bred bre… 010119 Animal Produ… 01       #FFE9…
#>  4 Asses, mules and hinnies, live     010120 Animal Produ… 01       #FFE9…
#>  5 Bovine                             0102   Animal Produ… 01       #FFE9…
#>  6 Bovine animals, live pure-bred br… 010210 Animal Produ… 01       #FFE9…
#>  7 Bovine animals, live, except pure… 010290 Animal Produ… 01       #FFE9…
#>  8 Pigs                               0103   Animal Produ… 01       #FFE9…
#>  9 Swine, live pure-bred breeding     010310 Animal Produ… 01       #FFE9…
#> 10 Swine, live except pure-bred bree… 010391 Animal Produ… 01       #FFE9…
#> # ... with 6,272 more rows

hs96
#> # A tibble: 6,350 x 5
#>    product_name                        id     group_name   group_id color 
#>    <chr>                               <chr>  <chr>        <chr>    <chr> 
#>  1 Live horses, asses, mules and hinn… 0101   Animal Prod… 01       #FFE9…
#>  2 Horses, Live                        010111 Animal Prod… 01       #FFE9…
#>  3 Horses, Live                        010119 Animal Prod… 01       #FFE9…
#>  4 Asses, Mules And Hinnies, Live      010120 Animal Prod… 01       #FFE9…
#>  5 Live bovine animals                 0102   Animal Prod… 01       #FFE9…
#>  6 Purebred Bovine Breeding Animals    010210 Animal Prod… 01       #FFE9…
#>  7 Bovine Animals, Other Than Purebre… 010290 Animal Prod… 01       #FFE9…
#>  8 Live swine                          0103   Animal Prod… 01       #FFE9…
#>  9 Purebred Swine Breeding Animals     010310 Animal Prod… 01       #FFE9…
#> 10 Swine Other Than Purebred Breeding… 010391 Animal Prod… 01       #FFE9…
#> # ... with 6,340 more rows

hs02
#> # A tibble: 6,472 x 5
#>    product_name                         id     group_name   group_id color
#>    <chr>                                <chr>  <chr>        <chr>    <chr>
#>  1 Live horses, asses, mules and hinni… 0101   Animal Prod… 01       #FFE…
#>  2 Live horses/asses/mules/hinnies: pu… 010110 Animal Prod… 01       #FFE…
#>  3 Live horses/asses/mules/hinnies oth… 010190 Animal Prod… 01       #FFE…
#>  4 Live bovine animals.                 0102   Animal Prod… 01       #FFE…
#>  5 Live bovine animals: pure-bred bree… 010210 Animal Prod… 01       #FFE…
#>  6 Live bovine animals other than pure… 010290 Animal Prod… 01       #FFE…
#>  7 Live swine.                          0103   Animal Prod… 01       #FFE…
#>  8 Live swine: pure-bred breeding anim… 010310 Animal Prod… 01       #FFE…
#>  9 Live swine other than pure-bred bre… 010391 Animal Prod… 01       #FFE…
#> 10 Live swine other than pure-bred bre… 010392 Animal Prod… 01       #FFE…
#> # ... with 6,462 more rows

hs07
#> # A tibble: 6,276 x 5
#>    product_name                         id     group_name   group_id color
#>    <chr>                                <chr>  <chr>        <chr>    <chr>
#>  1 Live horses, asses, mules and hinni… 0101   Animal Prod… 01       #FFE…
#>  2 Live horses/asses/mules/hinnies: pu… 010110 Animal Prod… 01       #FFE…
#>  3 Live horses/asses/mules/hinnies oth… 010190 Animal Prod… 01       #FFE…
#>  4 Live bovine animals.                 0102   Animal Prod… 01       #FFE…
#>  5 Live bovine animals: pure-bred bree… 010210 Animal Prod… 01       #FFE…
#>  6 Live bovine animals other than pure… 010290 Animal Prod… 01       #FFE…
#>  7 Live swine.                          0103   Animal Prod… 01       #FFE…
#>  8 Live swine: pure-bred breeding anim… 010310 Animal Prod… 01       #FFE…
#>  9 Live swine other than pure-bred bre… 010391 Animal Prod… 01       #FFE…
#> 10 Live swine other than pure-bred bre… 010392 Animal Prod… 01       #FFE…
#> # ... with 6,266 more rows

sitc
#> # A tibble: 6,472 x 5
#>    product_name                         id     group_name   group_id color
#>    <chr>                                <chr>  <chr>        <chr>    <chr>
#>  1 Live horses, asses, mules and hinni… 0101   Animal Prod… 01       #FFE…
#>  2 Live horses/asses/mules/hinnies: pu… 010110 Animal Prod… 01       #FFE…
#>  3 Live horses/asses/mules/hinnies oth… 010190 Animal Prod… 01       #FFE…
#>  4 Live bovine animals.                 0102   Animal Prod… 01       #FFE…
#>  5 Live bovine animals: pure-bred bree… 010210 Animal Prod… 01       #FFE…
#>  6 Live bovine animals other than pure… 010290 Animal Prod… 01       #FFE…
#>  7 Live swine.                          0103   Animal Prod… 01       #FFE…
#>  8 Live swine: pure-bred breeding anim… 010310 Animal Prod… 01       #FFE…
#>  9 Live swine other than pure-bred bre… 010391 Animal Prod… 01       #FFE…
#> 10 Live swine other than pure-bred bre… 010392 Animal Prod… 01       #FFE…
#> # ... with 6,462 more rows
…
# What does Chile export to China?  
# year 2015 - SITC (4 characters)
getdata("chl", "chn", 2015)
#> Processing 2015 data. The classification is sitc.

# What does Chile export to China?  
# year 2015 - HS07 (4 and 6 characters)
getdata("chl", "chn", 2015, "hs07")
#> Processing 2015 data. The classification is hs07.

The result is always an object titled origin_destination_year_classification.

chl_chn_2015_sitc
#> # A tibble: 670 x 31
#>     year origin_id destination_id origin_name destination_name id   
#>    <dbl> <chr>     <chr>          <chr>       <chr>            <chr>
#>  1  2015 chl       chn            Chile       China            5722 
#>  2  2015 chl       chn            Chile       China            5838 
#>  3  2015 chl       chn            Chile       China            6251 
#>  4  2015 chl       chn            Chile       China            6282 
#>  5  2015 chl       chn            Chile       China            6289 
#>  6  2015 chl       chn            Chile       China            6352 
#>  7  2015 chl       chn            Chile       China            6418 
#>  8  2015 chl       chn            Chile       China            6572 
#>  9  2015 chl       chn            Chile       China            6577 
#> 10  2015 chl       chn            Chile       China            6631 
#> # ... with 660 more rows, and 25 more variables: id_len <int>,
#> #   product_name <chr>, group_id <chr>, group_name <chr>,
#> #   export_val <dbl>, export_val_growth_pct <dbl>,
#> #   export_val_growth_pct_5 <dbl>, export_val_growth_val <dbl>,
#> #   export_val_growth_val_5 <dbl>, export_rca <dbl>, import_val <dbl>,
#> #   import_val_growth_pct <dbl>, import_val_growth_pct_5 <dbl>,
#> #   import_val_growth_val <dbl>, import_val_growth_val_5 <dbl>,
#> #   import_rca <dbl>, trade_exchange_val <dbl>, pci <dbl>, pci_rank <dbl>,
#> #   pci_rank_delta <dbl>, top_exporter_code <chr>,
#> #   top_importer_code <chr>, top_importer <chr>, top_exporter <chr>,
#> #   color <chr>

chl_chn_2015_hs07
#> # A tibble: 4,730 x 31
#>     year origin_id destination_id origin_name destination_name id    
#>    <dbl> <chr>     <chr>          <chr>       <chr>            <chr> 
#>  1  2015 chl       chn            Chile       China            0102  
#>  2  2015 chl       chn            Chile       China            010210
#>  3  2015 chl       chn            Chile       China            010290
#>  4  2015 chl       chn            Chile       China            0106  
#>  5  2015 chl       chn            Chile       China            010619
#>  6  2015 chl       chn            Chile       China            0201  
#>  7  2015 chl       chn            Chile       China            020120
#>  8  2015 chl       chn            Chile       China            020130
#>  9  2015 chl       chn            Chile       China            0202  
#> 10  2015 chl       chn            Chile       China            020220
#> # ... with 4,720 more rows, and 25 more variables: id_len <int>,
#> #   product_name <chr>, group_id <chr>, group_name <chr>,
#> #   export_val <dbl>, export_val_growth_pct <dbl>,
#> #   export_val_growth_pct_5 <dbl>, export_val_growth_val <dbl>,
#> #   export_val_growth_val_5 <dbl>, export_rca <dbl>, import_val <dbl>,
#> #   import_val_growth_pct <dbl>, import_val_growth_val <dbl>,
#> #   import_val_growth_pct_5 <dbl>, import_val_growth_val_5 <dbl>,
#> #   import_rca <dbl>, trade_exchange_val <dbl>, pci <dbl>, pci_rank <dbl>,
#> #   pci_rank_delta <dbl>, top_exporter_code <chr>,
…
