HS92 products — hs92 • oec
…
    product_nameContains the SITC products' names (e.g. horses, bovine, pigs, etc)

    idContains the associated codes of every product (e.g. 0101 means horses)

    group_nameContains the SITC groups (e.g. animal products, vegetable products, etc)

    group_idContains the associated codes of every group (e.g. 01 means animal products)

    colorOne colour per group used to create visualizations

    Examples

hs92
#> # A tibble: 6,282 x 5
#>    product_name                            id     group_name    group_id color 
#>    <chr>                                   <chr>  <chr>         <chr>    <chr> 
#>  1 Horses                                  0101   Animal Produ… 01       #FFE9…
#>  2 Horses, live pure-bred breeding         010111 Animal Produ… 01       #FFE9…
#>  3 Horses, live except pure-bred breeding  010119 Animal Produ… 01       #FFE9…
#>  4 Asses, mules and hinnies, live          010120 Animal Produ… 01       #FFE9…
#>  5 Bovine                                  0102   Animal Produ… 01       #FFE9…
#>  6 Bovine animals, live pure-bred breeding 010210 Animal Produ… 01       #FFE9…
#>  7 Bovine animals, live, except pure-bred… 010290 Animal Produ… 01       #FFE9…
#>  8 Pigs                                    0103   Animal Produ… 01       #FFE9…
#>  9 Swine, live pure-bred breeding          010310 Animal Produ… 01       #FFE9…
#> 10 Swine, live except pure-bred breeding … 010391 Animal Produ… 01       #FFE9…
#> # ... with 6,272 more rows
…
